1469451577.845841000, 0.112972, 0.000059, 0.004289, -0.013824,	-0.005425, 0.001052, 0.999889, 0.000000,	0.000000, 0.000000, 0.000000, 0.000000, 0.000000 
1469451580.946938000, 0.111631, 0.006971, 0.000303, 0.003785,	-0.005446, 0.000569, 0.999978, 0.000000,	0.000000, 0.000000, 0.000000, 0.000000, 0.000000 
1469451584.009239000, 0.116750, 0.000467, 0.003771, -0.013433,	-0.005143, 0.000192, 0.999897, 0.000000,	0.000000, 0.000000, 0.000000, 0.000000, 0.000000 
1469451587.113803000, 0.113258, 0.006797, -0.000186, 0.003228,	-0.005213, 0.001099, 0.999981, 0.000000,	0.000000, 0.000000, 0.000000, 0.000000, 0.000000 
1469451590.181187000, 0.113477, -0.000632, 0.004628, -0.013447,	-0.004771, 0.000226, 0.999898, 0.000000,	0.000000, 0.000000, 0.000000, 0.000000, 0.000000 
1469451593.267869000, 0.107425, 0.006371, 0.000807, 0.003358,	-0.003504, 0.000894, 0.999988, 0.000000,	0.000000, 0.000000, 0.000000, 0.000000, 0.000000 
1469451596.339069000, 0.447065, 0.004070, 0.001500, -0.014977,	-0.005071, 0.000565, 0.999875, 0.000000,	0.000000, 0.000000, 0.000000, 0.000000, 0.000000 
1469451599.428421000, 1.316169, 0.018964, 0.000351, 0.005160,	-0.009523, 0.006644, 0.999919, 0.000000,	0.000000, 0.000000, 0.000000, 0.000000, 0.000000 
1469451602.498569000, 2.157773, 0.018152, 0.017734, -0.015219,	-0.006292, -0.002990, 0.999860, 0.000000,	0.000000, 0.000000, 0.000000, 0.000000, 0.000000 
1469451605.587480000, 3.008533, 0.012078, 0.006088, 0.005426,	-0.007756, -0.008821, 0.999916, 0.000000,	0.000000, 0.000000, 0.000000, 0.000000, 0.000000 
1469451608.655589000, 3.911811, 0.000529, 0.028184, -0.012667,	-0.008568, -0.004934, 0.999871, 0.000000,	0.000000, 0.000000, 0.000000, 0.000000, 0.000000 
1469451611.746387000, 4.731496, 0.001547, 0.035302, 0.006933,	-0.006306, -0.007728, 0.999926, 0.000000,	0.000000, 0.000000, 0.000000, 0.000000, 0.000000 
1469451614.819148000, 5.593687, 0.004799, 0.047067, -0.011438,	-0.005265, 0.009759, 0.999873, 0.000000,	0.000000, 0.000000, 0.000000, 0.000000, 0.000000 
1469451617.916702000, 6.431326, 0.024655, 0.027962, 0.006972,	-0.004646, 0.001130, 0.999964, 0.000000,	0.000000, 0.000000, 0.000000, 0.000000, 0.000000 
1469451620.990468000, 7.287695, 0.032914, 0.042749, -0.006598,	-0.008143, 0.006007, 0.999927, 0.000000,	0.000000, 0.000000, 0.000000, 0.000000, 0.000000 
1469451624.082042000, 8.132988, 0.038665, 0.042169, 0.006794,	-0.006875, 0.002162, 0.999951, 0.000000,	0.000000, 0.000000, 0.000000, 0.000000, 0.000000 
1469451627.142785000, 8.991928, 0.045402, 0.056499, -0.005880,	-0.004776, 0.001052, 0.999971, 0.000000,	0.000000, 0.000000, 0.000000, 0.000000, 0.000000 
1469451630.241620000, 9.814894, 0.056340, 0.057209, 0.008003,	-0.006490, 0.005014, 0.999934, 0.000000,	0.000000, 0.000000, 0.000000, 0.000000, 0.000000 
1469451633.300730000, 10.673228, 0.063865, 0.073601, -0.006821,	-0.006028, 0.002252, 0.999956, 0.000000,	0.000000, 0.000000, 0.000000, 0.000000, 0.000000 
1469451636.398994000, 11.507362, 0.070803, 0.056816, 0.010335,	-0.007676, 0.010897, 0.999858, 0.000000,	0.000000, 0.000000, 0.000000, 0.000000, 0.000000 
1469451639.474967000, 12.374235, 0.102177, 0.083523, -0.006072,	-0.004717, 0.012421, 0.999893, 0.000000,	0.000000, 0.000000, 0.000000, 0.000000, 0.000000 
1469451642.571699000, 13.188443, 0.129143, 0.082821, 0.009400,	-0.006637, 0.014980, 0.999822, 0.000000,	0.000000, 0.000000, 0.000000, 0.000000, 0.000000 
1469451645.627560000, 14.056954, 0.160372, 0.094826, -0.007724,	-0.005650, 0.015053, 0.999841, 0.000000,	0.000000, 0.000000, 0.000000, 0.000000, 0.000000 
1469451648.725235000, 14.885024, 0.187676, 0.067697, 0.008614,	-0.006772, 0.014163, 0.999840, 0.000000,	0.000000, 0.000000, 0.000000, 0.000000, 0.000000 
1469451651.783054000, 15.737799, 0.210452, 0.097558, -0.008121,	-0.006309, 0.006832, 0.999924, 0.000000,	0.000000, 0.000000, 0.000000, 0.000000, 0.000000 
1469451654.886193000, 16.579308, 0.210416, 0.106448, 0.004244,	-0.004924, 0.003146, 0.999974, 0.000000,	0.000000, 0.000000, 0.000000, 0.000000, 0.000000 
1469451657.962241000, 17.424114, 0.251390, 0.123016, -0.003697,	-0.000515, 0.023973, 0.999706, 0.000000,	0.000000, 0.000000, 0.000000, 0.000000, 0.000000 
1469451661.043824000, 18.272224, 0.340289, 0.106135, 0.006830,	0.009137, 0.017048, 0.999790, 0.000000,	0.000000, 0.000000, 0.000000, 0.000000, 0.000000 
1469451664.118020000, 18.897339, 0.756860, 0.094043, 0.002850,	0.007874, 0.369213, 0.929307, 0.000000,	0.000000, 0.000000, 0.000000, 0.000000, 0.000000 
1469451667.206254000, 19.516857, 1.313280, 0.089028, 0.003137,	0.016665, 0.380790, 0.924506, 0.000000,	0.000000, 0.000000, 0.000000, 0.000000, 0.000000 
1469451670.279504000, 19.751083, 2.130194, 0.086066, -0.011136,	0.005398, 0.679227, 0.733824, 0.000000,	0.000000, 0.000000, 0.000000, 0.000000, 0.000000 
1469451673.367440000, 19.816292, 2.970824, 0.054090, -0.004143,	0.013703, 0.680268, 0.732823, 0.000000,	0.000000, 0.000000, 0.000000, 0.000000, 0.000000 
1469451676.437424000, 19.871328, 3.830108, 0.025421, -0.013168,	0.007496, 0.687363, 0.726156, 0.000000,	0.000000, 0.000000, 0.000000, 0.000000, 0.000000 
1469451679.528092000, 19.918530, 4.686030, -0.014709, -0.003785,	0.013537, 0.702806, 0.711242, 0.000000,	0.000000, 0.000000, 0.000000, 0.000000, 0.000000 
1469451682.594219000, 19.867439, 5.559647, -0.014011, -0.008995,	0.010547, 0.697254, 0.716690, 0.000000,	0.000000, 0.000000, 0.000000, 0.000000, 0.000000 
1469451685.698042000, 19.894753, 6.415031, -0.050725, 0.005854,	0.019389, 0.696177, 0.717585, 0.000000,	0.000000, 0.000000, 0.000000, 0.000000, 0.000000 
1469451688.764347000, 19.922066, 7.288336, -0.066901, -0.002102,	0.010840, 0.697870, 0.716140, 0.000000,	0.000000, 0.000000, 0.000000, 0.000000, 0.000000 
1469451691.850429000, 19.949776, 8.090645, -0.100293, 0.006623,	0.019377, 0.698103, 0.715704, 0.000000,	0.000000, 0.000000, 0.000000, 0.000000, 0.000000 
1469451694.919548000, 19.971062, 8.986929, -0.119991, -0.007812,	0.007869, 0.702204, 0.711889, 0.000000,	0.000000, 0.000000, 0.000000, 0.000000, 0.000000 
1469451698.010203000, 19.972931, 9.802795, -0.147603, 0.004250,	0.017039, 0.702691, 0.711279, 0.000000,	0.000000, 0.000000, 0.000000, 0.000000, 0.000000 
1469451701.078959000, 19.980225, 10.690005, -0.148339, -0.010331,	0.007285, 0.701269, 0.712785, 0.000000,	0.000000, 0.000000, 0.000000, 0.000000, 0.000000 
1469451704.167839000, 20.058350, 11.429758, -0.131461, 0.010951,	0.007857, 0.703467, 0.710601, 0.000000,	0.000000, 0.000000, 0.000000, 0.000000, 0.000000 
1469451707.240349000, 20.065680, 12.298321, -0.148527, -0.014792,	0.013158, 0.704922, 0.709009, 0.000000,	0.000000, 0.000000, 0.000000, 0.000000, 0.000000 
1469451710.332340000, 20.074528, 13.111200, -0.197244, -0.002309,	0.021107, 0.696725, 0.717024, 0.000000,	0.000000, 0.000000, 0.000000, 0.000000, 0.000000 
1469451713.407023000, 20.110512, 13.981553, -0.211678, -0.014793,	0.011645, 0.682499, 0.730644, 0.000000,	0.000000, 0.000000, 0.000000, 0.000000, 0.000000 
1469451716.502400000, 20.176968, 14.795611, -0.244399, -0.002050,	0.016643, 0.679178, 0.733782, 0.000000,	0.000000, 0.000000, 0.000000, 0.000000, 0.000000 
1469451719.558035000, 20.228596, 15.660993, -0.273088, -0.015502,	0.009997, 0.684716, 0.728576, 0.000000,	0.000000, 0.000000, 0.000000, 0.000000, 0.000000 
1469451722.658572000, 20.279167, 16.511320, -0.325210, -0.003597,	0.013644, 0.692610, 0.721175, 0.000000,	0.000000, 0.000000, 0.000000, 0.000000, 0.000000 
1469451725.717093000, 20.247910, 17.348501, -0.304845, -0.014521,	0.015106, 0.713366, 0.700479, 0.000000,	0.000000, 0.000000, 0.000000, 0.000000, 0.000000 
1469451728.815697000, 20.141333, 17.829086, -0.299989, -0.029773,	0.013037, 0.862341, 0.505284, 0.000000,	0.000000, 0.000000, 0.000000, 0.000000, 0.000000 
1469451731.889647000, 20.201553, 17.713192, -0.319730, 0.000043,	-0.016761, -0.964363, 0.264052, 0.000000,	0.000000, 0.000000, 0.000000, 0.000000, 0.000000 
1469451734.980415000, 20.237370, 17.717350, -0.314847, 0.012036,	-0.030419, -0.718030, 0.695243, 0.000000,	0.000000, 0.000000, 0.000000, 0.000000, 0.000000 
1469451738.050899000, 20.245148, 17.003433, -0.292575, -0.003282,	-0.014342, -0.696077, 0.717816, 0.000000,	0.000000, 0.000000, 0.000000, 0.000000, 0.000000 
1469451741.142257000, 20.290045, 16.134760, -0.278700, 0.003368,	-0.027376, -0.706730, 0.706945, 0.000000,	0.000000, 0.000000, 0.000000, 0.000000, 0.000000 
1469451744.209882000, 20.286945, 15.314178, -0.253033, -0.009595,	-0.014441, -0.715161, 0.698745, 0.000000,	0.000000, 0.000000, 0.000000, 0.000000, 0.000000 
1469451747.317032000, 20.285612, 14.436153, -0.228800, 0.004532,	-0.023726, -0.718263, 0.695352, 0.000000,	0.000000, 0.000000, 0.000000, 0.000000, 0.000000 
1469451750.366212000, 20.256605, 13.616949, -0.199635, -0.006125,	-0.010284, -0.721276, 0.692545, 0.000000,	0.000000, 0.000000, 0.000000, 0.000000, 0.000000 
1469451753.460981000, 20.229612, 12.730808, -0.182287, -0.001216,	-0.029273, -0.719898, 0.693461, 0.000000,	0.000000, 0.000000, 0.000000, 0.000000, 0.000000 
1469451756.539648000, 20.176014, 11.922503, -0.178465, -0.022428,	-0.028221, -0.719143, 0.693926, 0.000000,	0.000000, 0.000000, 0.000000, 0.000000, 0.000000 
1469451759.634108000, 20.148411, 11.056076, -0.160987, 0.029258,	-0.004606, -0.712500, 0.701047, 0.000000,	0.000000, 0.000000, 0.000000, 0.000000, 0.000000 
1469451762.687119000, 20.125992, 10.231234, -0.142228, -0.006775,	-0.011792, -0.712400, 0.701642, 0.000000,	0.000000, 0.000000, 0.000000, 0.000000, 0.000000 
1469451765.801270000, 20.115309, 9.359142, -0.107050, 0.007415,	-0.023957, -0.712679, 0.701041, 0.000000,	0.000000, 0.000000, 0.000000, 0.000000, 0.000000 
1469451768.857551000, 20.071144, 8.484766, -0.092760, -0.010654,	-0.007407, -0.735484, 0.677418, 0.000000,	0.000000, 0.000000, 0.000000, 0.000000, 0.000000 
1469451771.953764000, 20.011057, 7.621675, -0.073272, 0.002968,	-0.019481, -0.724119, 0.689394, 0.000000,	0.000000, 0.000000, 0.000000, 0.000000, 0.000000 
1469451775.029809000, 19.961870, 6.784050, -0.051383, -0.008356,	-0.009001, -0.733293, 0.679802, 0.000000,	0.000000, 0.000000, 0.000000, 0.000000, 0.000000 
1469451778.125316000, 19.929234, 5.893557, -0.031390, 0.005087,	-0.028433, -0.712604, 0.700971, 0.000000,	0.000000, 0.000000, 0.000000, 0.000000, 0.000000 
1469451781.176748000, 19.920631, 5.061612, -0.010022, -0.007572,	-0.016293, -0.709736, 0.704238, 0.000000,	0.000000, 0.000000, 0.000000, 0.000000, 0.000000 
1469451784.269770000, 19.938633, 4.220591, 0.021203, 0.006619,	-0.030157, -0.673595, 0.738456, 0.000000,	0.000000, 0.000000, 0.000000, 0.000000, 0.000000 
1469451787.342372000, 19.882027, 3.389913, 0.045319, -0.013942,	-0.010658, -0.727364, 0.686028, 0.000000,	0.000000, 0.000000, 0.000000, 0.000000, 0.000000 
1469451790.451774000, 19.838017, 2.539270, 0.058298, 0.002903,	-0.018537, -0.730834, 0.682297, 0.000000,	0.000000, 0.000000, 0.000000, 0.000000, 0.000000 
1469451793.504824000, 19.606516, 1.828062, 0.083165, -0.002694,	-0.001949, -0.904713, 0.426010, 0.000000,	0.000000, 0.000000, 0.000000, 0.000000, 0.000000 
1469451796.599689000, 18.990309, 1.448950, 0.086406, 0.002924,	-0.022208, -0.997749, 0.063207, 0.000000,	0.000000, 0.000000, 0.000000, 0.000000, 0.000000 
1469451799.674311000, 18.125793, 1.359709, 0.087423, -0.001665,	-0.005819, -0.999322, 0.036311, 0.000000,	0.000000, 0.000000, 0.000000, 0.000000, 0.000000 
1469451802.757272000, 17.219398, 1.293884, 0.067709, -0.000249,	-0.021439, -0.999215, 0.033316, 0.000000,	0.000000, 0.000000, 0.000000, 0.000000, 0.000000 
1469451805.837808000, 16.420446, 1.241905, 0.077892, 0.002919,	-0.008150, -0.999525, 0.029563, 0.000000,	0.000000, 0.000000, 0.000000, 0.000000, 0.000000 
1469451808.937028000, 15.571539, 1.199260, 0.074668, -0.001090,	-0.024549, -0.999317, 0.027604, 0.000000,	0.000000, 0.000000, 0.000000, 0.000000, 0.000000 
1469451811.991704000, 14.723759, 1.156674, 0.074295, 0.002154,	-0.007488, -0.999947, 0.006692, 0.000000,	0.000000, 0.000000, 0.000000, 0.000000, 0.000000 
1469451815.089150000, 13.959462, 1.128099, 0.051806, -0.000922,	-0.023126, -0.999556, 0.018748, 0.000000,	0.000000, 0.000000, 0.000000, 0.000000, 0.000000 
1469451818.151108000, 13.077114, 1.086516, 0.044026, -0.001520,	-0.011784, -0.999686, 0.022049, 0.000000,	0.000000, 0.000000, 0.000000, 0.000000, 0.000000 
1469451821.261718000, 12.203306, 1.029589, 0.059327, 0.004287,	-0.027781, -0.999410, 0.019754, 0.000000,	0.000000, 0.000000, 0.000000, 0.000000, 0.000000 
1469451824.315283000, 11.388003, 0.986833, 0.056933, 0.002292,	-0.011138, -0.999728, 0.020354, 0.000000,	0.000000, 0.000000, 0.000000, 0.000000, 0.000000 
1469451827.420560000, 10.489311, 0.970856, 0.044299, 0.002022,	-0.023088, -0.999693, 0.008800, 0.000000,	0.000000, 0.000000, 0.000000, 0.000000, 0.000000 
1469451830.482967000, 9.667397, 0.954398, 0.039974, 0.001354,	-0.011478, -0.999896, 0.008627, 0.000000,	0.000000, 0.000000, 0.000000, 0.000000, 0.000000 
1469451833.570111000, 8.822785, 0.929451, 0.028280, -0.000012,	-0.026187, -0.999605, 0.010165, 0.000000,	0.000000, 0.000000, 0.000000, 0.000000, 0.000000 
1469451836.641867000, 7.985750, 0.907147, 0.037227, 0.002337,	-0.010201, -0.999933, 0.004879, 0.000000,	0.000000, 0.000000, 0.000000, 0.000000, 0.000000 
1469451839.726003000, 7.135892, 0.866698, 0.027955, 0.002536,	-0.026903, -0.999359, 0.023495, 0.000000,	0.000000, 0.000000, 0.000000, 0.000000, 0.000000 
1469451842.797780000, 6.323348, 0.836441, 0.029514, 0.001521,	-0.009241, -0.999784, 0.018536, 0.000000,	0.000000, 0.000000, 0.000000, 0.000000, 0.000000 
1469451845.887566000, 5.460778, 0.813660, 0.025167, 0.002902,	-0.025396, -0.999635, 0.008689, 0.000000,	0.000000, 0.000000, 0.000000, 0.000000, 0.000000 
1469451848.961660000, 4.676780, 0.772676, 0.011140, 0.003901,	-0.011156, -0.999826, 0.014411, 0.000000,	0.000000, 0.000000, 0.000000, 0.000000, 0.000000 
1469451852.053514000, 3.821138, 0.774420, -0.004421, -0.004106,	0.023534, 0.999704, 0.004506, 0.000000,	0.000000, 0.000000, 0.000000, 0.000000, 0.000000 
1469451855.123790000, 2.960871, 0.758928, 0.006271, 0.004522,	-0.005337, -0.999900, 0.012318, 0.000000,	0.000000, 0.000000, 0.000000, 0.000000, 0.000000 
1469451858.212340000, 2.106152, 0.736351, -0.001171, 0.005146,	-0.020159, -0.999692, 0.013552, 0.000000,	0.000000, 0.000000, 0.000000, 0.000000, 0.000000 
1469451861.280020000, 1.266961, 0.689264, -0.015874, 0.004690,	-0.008291, -0.999873, 0.012749, 0.000000,	0.000000, 0.000000, 0.000000, 0.000000, 0.000000 
1469451864.386171000, 0.412121, 0.583717, -0.027134, 0.006484,	-0.019925, -0.995130, 0.096321, 0.000000,	0.000000, 0.000000, 0.000000, 0.000000, 0.000000 
1469451867.437042000, -0.397391, 0.424975, -0.033950, 0.003546,	-0.004347, -0.995801, 0.091372, 0.000000,	0.000000, 0.000000, 0.000000, 0.000000, 0.000000 
1469451870.548214000, -1.247432, 0.283277, -0.046701, 0.006676,	-0.019850, -0.996835, 0.076695, 0.000000,	0.000000, 0.000000, 0.000000, 0.000000, 0.000000 
1469451873.595040000, -2.083018, 0.153896, -0.056087, 0.006457,	-0.009478, -0.997718, 0.066540, 0.000000,	0.000000, 0.000000, 0.000000, 0.000000, 0.000000 
1469451876.706483000, -2.938765, 0.023070, -0.065565, 0.007264,	-0.027076, -0.997104, 0.070702, 0.000000,	0.000000, 0.000000, 0.000000, 0.000000, 0.000000 
1469451879.771907000, -3.764224, -0.090495, -0.076496, 0.001648,	-0.009612, -0.997794, 0.065660, 0.000000,	0.000000, 0.000000, 0.000000, 0.000000, 0.000000 
1469451882.866278000, -4.604411, -0.191651, -0.115796, 0.006402,	-0.022734, -0.997632, 0.064603, 0.000000,	0.000000, 0.000000, 0.000000, 0.000000, 0.000000 
1469451885.926228000, -5.470625, -0.319966, -0.123171, 0.005633,	-0.011066, -0.998184, 0.058952, 0.000000,	0.000000, 0.000000, 0.000000, 0.000000, 0.000000 
1469451889.027183000, -6.284292, -0.380679, -0.124801, 0.005889,	-0.017850, -0.997666, 0.065646, 0.000000,	0.000000, 0.000000, 0.000000, 0.000000, 0.000000 
1469451892.088829000, -7.067491, -0.454333, -0.132228, 0.006048,	0.001704, -0.999980, 0.000602, 0.000000,	0.000000, 0.000000, 0.000000, 0.000000, 0.000000 
1469451895.198674000, -7.965063, -0.484620, -0.148423, 0.005561,	-0.013267, -0.999892, 0.003140, 0.000000,	0.000000, 0.000000, 0.000000, 0.000000, 0.000000 
1469451898.248392000, -8.783068, -0.476674, -0.164758, -0.005701,	-0.001469, 0.999981, 0.001988, 0.000000,	0.000000, 0.000000, 0.000000, 0.000000, 0.000000 
1469451901.359630000, -9.676099, -0.493546, -0.178332, -0.004755,	0.014208, 0.999821, 0.011521, 0.000000,	0.000000, 0.000000, 0.000000, 0.000000, 0.000000 
1469451904.426844000, -10.473313, -0.465923, -0.178977, -0.005909,	0.000219, 0.999895, 0.013223, 0.000000,	0.000000, 0.000000, 0.000000, 0.000000, 0.000000 
1469451907.511886000, -11.363859, -0.477126, -0.196967, -0.006723,	0.019219, 0.999788, 0.003186, 0.000000,	0.000000, 0.000000, 0.000000, 0.000000, 0.000000 
1469451910.580860000, -12.188938, -0.472674, -0.207468, 0.007525,	0.000359, -0.999952, 0.006283, 0.000000,	0.000000, 0.000000, 0.000000, 0.000000, 0.000000 
1469451913.689926000, -13.042055, -0.502418, -0.226497, 0.007807,	-0.017254, -0.999628, 0.019652, 0.000000,	0.000000, 0.000000, 0.000000, 0.000000, 0.000000 
1469451916.742992000, -13.878732, -0.530102, -0.231561, 0.006441,	-0.001445, -0.999774, 0.020219, 0.000000,	0.000000, 0.000000, 0.000000, 0.000000, 0.000000 
1469451919.835310000, -14.748457, -0.586518, -0.227552, 0.008757,	-0.020570, -0.999609, 0.016791, 0.000000,	0.000000, 0.000000, 0.000000, 0.000000, 0.000000 
1469451922.905822000, -15.579517, -0.602036, -0.252214, 0.006758,	-0.003810, -0.999833, 0.016575, 0.000000,	0.000000, 0.000000, 0.000000, 0.000000, 0.000000 
1469451926.009379000, -16.440662, -0.652064, -0.272951, 0.007360,	-0.020108, -0.999676, 0.013766, 0.000000,	0.000000, 0.000000, 0.000000, 0.000000, 0.000000 
1469451929.071615000, -17.234814, -0.651475, -0.287673, 0.007406,	0.000279, -0.999892, 0.012682, 0.000000,	0.000000, 0.000000, 0.000000, 0.000000, 0.000000 
1469451932.161472000, -18.135082, -0.690333, -0.297124, 0.007455,	-0.020455, -0.999752, 0.004718, 0.000000,	0.000000, 0.000000, 0.000000, 0.000000, 0.000000 
1469451935.229566000, -18.941874, -0.686775, -0.318331, 0.008403,	-0.000166, -0.999956, 0.004083, 0.000000,	0.000000, 0.000000, 0.000000, 0.000000, 0.000000 
1469451938.335076000, -19.841932, -0.721743, -0.342454, 0.008241,	-0.021255, -0.999733, 0.003824, 0.000000,	0.000000, 0.000000, 0.000000, 0.000000, 0.000000 
1469451941.384797000, -20.661402, -0.718865, -0.345908, 0.008033,	-0.000401, -0.999964, 0.002871, 0.000000,	0.000000, 0.000000, 0.000000, 0.000000, 0.000000 
1469451944.483519000, -21.430799, -0.809265, -0.360393, -0.018358,	-0.023093, -0.999557, 0.003913, 0.000000,	0.000000, 0.000000, 0.000000, 0.000000, 0.000000 
1469451947.550337000, -22.288166, -0.799519, -0.395359, 0.008029,	0.000179, -0.999785, 0.019139, 0.000000,	0.000000, 0.000000, 0.000000, 0.000000, 0.000000 
1469451950.657315000, -23.072182, -0.831353, -0.444508, 0.000786,	-0.017152, -0.999688, 0.018161, 0.000000,	0.000000, 0.000000, 0.000000, 0.000000, 0.000000 
1469451953.723527000, -23.919273, -0.833123, -0.442732, 0.006585,	-0.006750, -0.999813, 0.016908, 0.000000,	0.000000, 0.000000, 0.000000, 0.000000, 0.000000 
1469451956.811258000, -24.803074, -0.883438, -0.420348, 0.006964,	-0.020574, -0.999708, 0.010550, 0.000000,	0.000000, 0.000000, 0.000000, 0.000000, 0.000000 
1469451959.878816000, -25.580620, -0.861784, -0.425018, 0.010255,	-0.001730, -0.999908, 0.008761, 0.000000,	0.000000, 0.000000, 0.000000, 0.000000, 0.000000 
1469451962.973667000, -26.448277, -0.890435, -0.449438, 0.010819,	-0.018203, -0.999759, 0.005725, 0.000000,	0.000000, 0.000000, 0.000000, 0.000000, 0.000000 
1469451966.046425000, -27.297085, -0.895539, -0.467954, 0.005415,	-0.003865, -0.999968, 0.004413, 0.000000,	0.000000, 0.000000, 0.000000, 0.000000, 0.000000 
1469451969.142390000, -28.172586, -0.912425, -0.489118, 0.005832,	-0.016240, -0.999850, 0.001242, 0.000000,	0.000000, 0.000000, 0.000000, 0.000000, 0.000000 
1469451972.223175000, -29.005596, -0.918801, -0.491986, -0.010812,	0.003159, 0.999930, 0.003708, 0.000000,	0.000000, 0.000000, 0.000000, 0.000000, 0.000000 
1469451975.305676000, -29.869928, -0.925965, -0.519727, -0.014502,	0.015821, 0.999751, 0.006182, 0.000000,	0.000000, 0.000000, 0.000000, 0.000000, 0.000000 
1469451978.376831000, -30.719921, -0.918956, -0.543872, 0.011874,	0.003623, -0.999912, 0.004731, 0.000000,	0.000000, 0.000000, 0.000000, 0.000000, 0.000000 
1469451981.472311000, -31.559669, -0.951186, -0.579333, 0.011400,	-0.010848, -0.999606, 0.023255, 0.000000,	0.000000, 0.000000, 0.000000, 0.000000, 0.000000 
1469451984.527134000, -32.383720, -0.943991, -0.590553, 0.007876,	0.008073, -0.999874, 0.011186, 0.000000,	0.000000, 0.000000, 0.000000, 0.000000, 0.000000 
1469451987.640043000, -33.254780, -0.961653, -0.612701, -0.009270,	0.004487, 0.999941, 0.003512, 0.000000,	0.000000, 0.000000, 0.000000, 0.000000, 0.000000 
1469451990.692103000, -34.128201, -0.968923, -0.631031, 0.009697,	0.012227, -0.999487, 0.027980, 0.000000,	0.000000, 0.000000, 0.000000, 0.000000, 0.000000 
1469451993.804177000, -34.993282, -1.036488, -0.668853, 0.006197,	-0.006240, -0.999623, 0.026012, 0.000000,	0.000000, 0.000000, 0.000000, 0.000000, 0.000000 
1469451996.857074000, -35.842838, -1.084019, -0.659012, 0.004029,	0.008135, -0.999804, 0.017616, 0.000000,	0.000000, 0.000000, 0.000000, 0.000000, 0.000000 
1469451999.971790000, -36.719677, -1.117457, -0.676036, 0.005063,	-0.006153, -0.999922, 0.009576, 0.000000,	0.000000, 0.000000, 0.000000, 0.000000, 0.000000 
1469452003.018383000, -37.542812, -1.130059, -0.677420, -0.000087,	0.001121, -0.998562, 0.053604, 0.000000,	0.000000, 0.000000, 0.000000, 0.000000, 0.000000 
1469452006.107705000, -38.382404, -1.242721, -0.697169, 0.003662,	-0.013491, -0.999350, 0.033216, 0.000000,	0.000000, 0.000000, 0.000000, 0.000000, 0.000000 
1469452009.183172000, -39.220028, -1.308065, -0.694473, 0.007549,	0.000291, -0.999473, 0.031555, 0.000000,	0.000000, 0.000000, 0.000000, 0.000000, 0.000000 
1469452012.274377000, -40.081600, -1.373054, -0.717467, 0.011326,	-0.016343, -0.999279, 0.032346, 0.000000,	0.000000, 0.000000, 0.000000, 0.000000, 0.000000 
1469452015.338026000, -40.904434, -1.430480, -0.733877, 0.008087,	0.000401, -0.999457, 0.031956, 0.000000,	0.000000, 0.000000, 0.000000, 0.000000, 0.000000 
1469452018.443150000, -41.740284, -1.484202, -0.757320, 0.008678,	-0.012784, -0.999399, 0.031023, 0.000000,	0.000000, 0.000000, 0.000000, 0.000000, 0.000000 
1469452021.510899000, -42.592304, -1.502153, -0.760761, 0.005540,	0.005013, -0.999888, 0.012999, 0.000000,	0.000000, 0.000000, 0.000000, 0.000000, 0.000000 
1469452024.599216000, -43.454281, -1.528468, -0.779688, 0.008730,	-0.008168, -0.999870, 0.010817, 0.000000,	0.000000, 0.000000, 0.000000, 0.000000, 0.000000 
1469452027.677332000, -44.293667, -1.550706, -0.793443, 0.004264,	0.007850, -0.999923, 0.008617, 0.000000,	0.000000, 0.000000, 0.000000, 0.000000, 0.000000 
1469452030.769291000, -45.146034, -1.561914, -0.810904, 0.009071,	-0.008640, -0.999904, 0.005990, 0.000000,	0.000000, 0.000000, 0.000000, 0.000000, 0.000000 
1469452033.840793000, -45.973782, -1.573067, -0.810502, 0.006033,	0.005495, -0.999962, 0.002940, 0.000000,	0.000000, 0.000000, 0.000000, 0.000000, 0.000000 
1469452036.931716000, -46.821548, -1.581011, -0.836644, 0.005761,	-0.010714, -0.999914, 0.004823, 0.000000,	0.000000, 0.000000, 0.000000, 0.000000, 0.000000 
1469452040.001196000, -47.554077, -1.479423, -0.837468, -0.014595,	-0.010051, 0.948811, 0.315347, 0.000000,	0.000000, 0.000000, 0.000000, 0.000000, 0.000000 
1469452043.097823000, -48.015999, -0.813931, -0.837939, 0.004937,	0.004392, 0.806922, 0.590620, 0.000000,	0.000000, 0.000000, 0.000000, 0.000000, 0.000000 
1469452046.149059000, -48.270008, -0.008681, -0.831845, 0.007624,	0.010309, 0.769137, 0.638955, 0.000000,	0.000000, 0.000000, 0.000000, 0.000000, 0.000000 
1469452049.258968000, -48.282185, 0.839681, -0.854446, 0.020118,	0.014510, 0.715462, 0.698211, 0.000000,	0.000000, 0.000000, 0.000000, 0.000000, 0.000000 
1469452052.305884000, -48.313248, 1.691886, -0.852221, 0.004714,	0.012529, 0.720992, 0.692814, 0.000000,	0.000000, 0.000000, 0.000000, 0.000000, 0.000000 
1469452055.412919000, -48.371048, 2.539803, -0.873659, 0.013155,	0.023275, 0.734505, 0.678077, 0.000000,	0.000000, 0.000000, 0.000000, 0.000000, 0.000000 
1469452058.478371000, -48.445198, 3.422266, -0.885015, 0.006251,	0.008652, 0.731943, 0.681282, 0.000000,	0.000000, 0.000000, 0.000000, 0.000000, 0.000000 
1469452061.586111000, -48.564198, 3.620607, -0.866621, -0.009627,	0.009837, 0.946660, 0.321940, 0.000000,	0.000000, 0.000000, 0.000000, 0.000000, 0.000000 
1469452064.651543000, -48.498276, 3.566823, -0.864819, -0.012467,	0.002165, -0.908367, 0.417983, 0.000000,	0.000000, 0.000000, 0.000000, 0.000000, 0.000000 
1469452067.737699000, -48.502930, 3.280221, -0.852517, 0.006448,	-0.007507, -0.692416, 0.721430, 0.000000,	0.000000, 0.000000, 0.000000, 0.000000, 0.000000 
1469452070.808052000, -48.449570, 2.429914, -0.841558, -0.008146,	0.010495, -0.686798, 0.726727, 0.000000,	0.000000, 0.000000, 0.000000, 0.000000, 0.000000 
1469452073.893729000, -48.376263, 1.585603, -0.828489, 0.011656,	-0.009228, -0.688519, 0.725066, 0.000000,	0.000000, 0.000000, 0.000000, 0.000000, 0.000000 
1469452076.956555000, -48.327625, 0.756749, -0.824029, 0.014926,	-0.002858, -0.709833, 0.704206, 0.000000,	0.000000, 0.000000, 0.000000, 0.000000, 0.000000 
1469452080.060329000, -48.307343, -0.085549, -0.835106, 0.032328,	-0.017224, -0.686775, 0.725946, 0.000000,	0.000000, 0.000000, 0.000000, 0.000000, 0.000000 
1469452083.124417000, -48.178585, -0.754101, -0.849896, 0.014595,	-0.011000, -0.501920, 0.864721, 0.000000,	0.000000, 0.000000, 0.000000, 0.000000, 0.000000 
1469452086.228903000, -47.781647, -0.827518, -0.849134, 0.030129,	-0.018164, -0.069409, 0.996968, 0.000000,	0.000000, 0.000000, 0.000000, 0.000000, 0.000000 
1469452089.282246000, -46.996826, -0.947388, -0.837516, 0.008984,	-0.011543, -0.073852, 0.997162, 0.000000,	0.000000, 0.000000, 0.000000, 0.000000, 0.000000 
1469452092.391623000, -46.140026, -1.074914, -0.824463, 0.024971,	-0.012265, -0.074470, 0.996835, 0.000000,	0.000000, 0.000000, 0.000000, 0.000000, 0.000000 
1469452095.454977000, -45.321243, -1.219114, -0.809364, 0.005069,	-0.010533, -0.071166, 0.997396, 0.000000,	0.000000, 0.000000, 0.000000, 0.000000, 0.000000 
1469452098.540470000, -44.438370, -1.337092, -0.776483, 0.025559,	-0.011783, -0.079677, 0.996423, 0.000000,	0.000000, 0.000000, 0.000000, 0.000000, 0.000000 
1469452101.606681000, -43.600655, -1.476470, -0.767975, 0.004643,	-0.011373, -0.080579, 0.996673, 0.000000,	0.000000, 0.000000, 0.000000, 0.000000, 0.000000 
1469452104.717293000, -42.791145, -1.496673, -0.763192, 0.021042,	-0.008518, 0.002201, 0.999740, 0.000000,	0.000000, 0.000000, 0.000000, 0.000000, 0.000000 
1469452107.766777000, -41.928986, -1.505225, -0.746380, 0.003223,	-0.011375, -0.002862, 0.999926, 0.000000,	0.000000, 0.000000, 0.000000, 0.000000, 0.000000 
1469452110.878348000, -41.185448, -1.507088, -0.731539, 0.018920,	-0.011043, 0.008424, 0.999725, 0.000000,	0.000000, 0.000000, 0.000000, 0.000000, 0.000000 
1469452113.932182000, -40.321537, -1.492378, -0.713591, 0.002865,	-0.012286, 0.012410, 0.999843, 0.000000,	0.000000, 0.000000, 0.000000, 0.000000, 0.000000 
1469452117.042687000, -39.476780, -1.499580, -0.708289, 0.021754,	-0.013054, -0.011995, 0.999606, 0.000000,	0.000000, 0.000000, 0.000000, 0.000000, 0.000000 
1469452120.093323000, -38.664295, -1.526382, -0.686357, 0.001867,	-0.009778, -0.011658, 0.999883, 0.000000,	0.000000, 0.000000, 0.000000, 0.000000, 0.000000 
1469452123.205239000, -37.830818, -1.542982, -0.679018, 0.015666,	-0.006394, 0.002084, 0.999855, 0.000000,	0.000000, 0.000000, 0.000000, 0.000000, 0.000000 
1469452126.256883000, -36.961639, -1.522611, -0.675534, -0.005336,	-0.006561, -0.005696, 0.999948, 0.000000,	0.000000, 0.000000, 0.000000, 0.000000, 0.000000 
1469452129.354198000, -36.093700, -1.535826, -0.666992, 0.007095,	-0.006278, -0.008614, 0.999918, 0.000000,	0.000000, 0.000000, 0.000000, 0.000000, 0.000000 
1469452132.428705000, -35.223145, -1.543451, -0.652259, -0.011332,	-0.011523, -0.013733, 0.999775, 0.000000,	0.000000, 0.000000, 0.000000, 0.000000, 0.000000 
1469452135.518745000, -34.381485, -1.576897, -0.630437, -0.001293,	-0.011773, -0.005784, 0.999913, 0.000000,	0.000000, 0.000000, 0.000000, 0.000000, 0.000000 
1469452138.588522000, -33.511585, -1.548141, -0.606303, -0.013791,	-0.014989, 0.012944, 0.999709, 0.000000,	0.000000, 0.000000, 0.000000, 0.000000, 0.000000 
1469452141.682676000, -32.686554, -1.533366, -0.592613, 0.003301,	-0.012804, 0.006462, 0.999892, 0.000000,	0.000000, 0.000000, 0.000000, 0.000000, 0.000000 
1469452144.736126000, -31.831144, -1.524499, -0.565694, -0.011604,	-0.012428, 0.000630, 0.999855, 0.000000,	0.000000, 0.000000, 0.000000, 0.000000, 0.000000 
1469452147.844761000, -30.996935, -1.510455, -0.546431, 0.007418,	-0.013045, 0.021616, 0.999654, 0.000000,	0.000000, 0.000000, 0.000000, 0.000000, 0.000000 
1469452150.917767000, -30.155886, -1.459282, -0.524668, -0.009322,	-0.014546, 0.027797, 0.999464, 0.000000,	0.000000, 0.000000, 0.000000, 0.000000, 0.000000 
1469452154.010071000, -29.315456, -1.414404, -0.505979, 0.011192,	-0.012130, 0.026469, 0.999513, 0.000000,	0.000000, 0.000000, 0.000000, 0.000000, 0.000000 
1469452157.067929000, -28.476112, -1.363940, -0.476893, -0.003544,	-0.008866, 0.024906, 0.999644, 0.000000,	0.000000, 0.000000, 0.000000, 0.000000, 0.000000 
1469452160.162787000, -27.657642, -1.327948, -0.454621, 0.011426,	-0.007397, 0.022236, 0.999660, 0.000000,	0.000000, 0.000000, 0.000000, 0.000000, 0.000000 
1469452163.233896000, -26.810730, -1.288962, -0.441597, -0.005473,	-0.009100, 0.019761, 0.999748, 0.000000,	0.000000, 0.000000, 0.000000, 0.000000, 0.000000 
1469452166.326994000, -25.965477, -1.245838, -0.431896, 0.011494,	-0.010367, 0.030546, 0.999414, 0.000000,	0.000000, 0.000000, 0.000000, 0.000000, 0.000000 
1469452169.396956000, -25.134377, -1.201745, -0.417501, -0.001109,	-0.008437, 0.035015, 0.999351, 0.000000,	0.000000, 0.000000, 0.000000, 0.000000, 0.000000 
1469452172.488703000, -24.278906, -1.139519, -0.413975, 0.014066,	-0.010128, 0.034215, 0.999264, 0.000000,	0.000000, 0.000000, 0.000000, 0.000000, 0.000000 
1469452175.557782000, -23.438259, -1.082361, -0.397330, -0.001800,	-0.009481, 0.038128, 0.999226, 0.000000,	0.000000, 0.000000, 0.000000, 0.000000, 0.000000 
1469452178.650606000, -22.595890, -1.005264, -0.387310, 0.018241,	-0.017458, 0.047506, 0.998552, 0.000000,	0.000000, 0.000000, 0.000000, 0.000000, 0.000000 
1469452181.722035000, -21.762226, -0.930124, -0.352048, -0.000282,	-0.012191, 0.039093, 0.999161, 0.000000,	0.000000, 0.000000, 0.000000, 0.000000, 0.000000 
1469452184.813430000, -20.921509, -0.879035, -0.364680, 0.016763,	-0.013430, 0.042490, 0.998866, 0.000000,	0.000000, 0.000000, 0.000000, 0.000000, 0.000000 
1469452187.887711000, -20.060543, -0.800586, -0.335340, 0.001514,	-0.010635, 0.022194, 0.999696, 0.000000,	0.000000, 0.000000, 0.000000, 0.000000, 0.000000 
1469452190.977078000, -19.236799, -0.771530, -0.315726, 0.016534,	-0.010516, 0.022760, 0.999549, 0.000000,	0.000000, 0.000000, 0.000000, 0.000000, 0.000000 
1469452194.043590000, -18.392084, -0.713724, -0.302842, 0.003553,	-0.010284, 0.022108, 0.999696, 0.000000,	0.000000, 0.000000, 0.000000, 0.000000, 0.000000 
1469452197.133431000, -17.559551, -0.699620, -0.287335, 0.015988,	-0.010658, 0.023596, 0.999537, 0.000000,	0.000000, 0.000000, 0.000000, 0.000000, 0.000000 
1469452200.205069000, -16.703068, -0.645483, -0.261311, 0.002113,	-0.008853, 0.010298, 0.999906, 0.000000,	0.000000, 0.000000, 0.000000, 0.000000, 0.000000 
1469452203.296095000, -15.864935, -0.659875, -0.256910, 0.015454,	-0.010075, 0.005393, 0.999815, 0.000000,	0.000000, 0.000000, 0.000000, 0.000000, 0.000000 
1469452206.381940000, -14.987207, -0.633508, -0.246913, 0.003951,	-0.009153, 0.000793, 0.999950, 0.000000,	0.000000, 0.000000, 0.000000, 0.000000, 0.000000 
1469452209.475208000, -14.154957, -0.655658, -0.241966, 0.016833,	-0.008853, 0.001306, 0.999818, 0.000000,	0.000000, 0.000000, 0.000000, 0.000000, 0.000000 
1469452212.533191000, -13.286064, -0.638836, -0.220752, 0.004461,	-0.008988, 0.001152, 0.999949, 0.000000,	0.000000, 0.000000, 0.000000, 0.000000, 0.000000 
1469452215.640535000, -12.462295, -0.647328, -0.214236, 0.018303,	-0.015448, -0.002225, 0.999711, 0.000000,	0.000000, 0.000000, 0.000000, 0.000000, 0.000000 
1469452218.692494000, -11.620935, -0.617999, -0.193052, 0.004313,	-0.009144, 0.017667, 0.999793, 0.000000,	0.000000, 0.000000, 0.000000, 0.000000, 0.000000 
1469452221.799026000, -10.782758, -0.593265, -0.191303, 0.021571,	-0.011656, 0.017974, 0.999538, 0.000000,	0.000000, 0.000000, 0.000000, 0.000000, 0.000000 
1469452224.867191000, -9.906912, -0.549629, -0.167360, 0.000992,	-0.008248, 0.012556, 0.999887, 0.000000,	0.000000, 0.000000, 0.000000, 0.000000, 0.000000 
1469452227.959803000, -9.092630, -0.536158, -0.167000, 0.021494,	-0.011692, 0.006603, 0.999679, 0.000000,	0.000000, 0.000000, 0.000000, 0.000000, 0.000000 
1469452231.027644000, -8.219585, -0.522139, -0.141695, 0.001836,	-0.009342, 0.002030, 0.999953, 0.000000,	0.000000, 0.000000, 0.000000, 0.000000, 0.000000 
1469452234.112865000, -7.458353, -0.533506, -0.135951, 0.012486,	-0.008179, -0.003760, 0.999882, 0.000000,	0.000000, 0.000000, 0.000000, 0.000000, 0.000000 
1469452237.182001000, -6.599136, -0.481854, -0.112530, -0.008423,	-0.007618, 0.068115, 0.997613, 0.000000,	0.000000, 0.000000, 0.000000, 0.000000, 0.000000 
1469452240.272765000, -5.775361, -0.360414, -0.111184, 0.010231,	-0.006955, 0.066941, 0.997680, 0.000000,	0.000000, 0.000000, 0.000000, 0.000000, 0.000000 
1469452243.342253000, -4.910047, -0.306617, -0.088127, -0.009809,	-0.007512, 0.020431, 0.999715, 0.000000,	0.000000, 0.000000, 0.000000, 0.000000, 0.000000 
1469452246.449083000, -4.111766, -0.285048, -0.073222, 0.008483,	-0.001575, 0.012328, 0.999887, 0.000000,	0.000000, 0.000000, 0.000000, 0.000000, 0.000000 
1469452249.513960000, -3.233068, -0.270826, -0.061659, -0.010714,	-0.006359, 0.008569, 0.999886, 0.000000,	0.000000, 0.000000, 0.000000, 0.000000, 0.000000 
1469452252.600814000, -2.418167, -0.254299, -0.057098, 0.005149,	-0.005551, 0.008425, 0.999936, 0.000000,	0.000000, 0.000000, 0.000000, 0.000000, 0.000000 
1469452255.671056000, -1.529795, -0.243985, -0.038831, -0.011138,	-0.006188, 0.008188, 0.999885, 0.000000,	0.000000, 0.000000, 0.000000, 0.000000, 0.000000 
1469452258.766495000, -0.679393, -0.204098, -0.012690, 0.004294,	-0.005719, 0.024494, 0.999674, 0.000000,	0.000000, 0.000000, 0.000000, 0.000000, 0.000000 
1469452261.837307000, 0.144921, -0.152352, -0.000205, -0.017421,	-0.006872, 0.027342, 0.999451, 0.000000,	0.000000, 0.000000, 0.000000, 0.000000, 0.000000 
1469452264.931535000, 0.681767, -0.121703, -0.000856, 0.001134,	-0.001648, 0.022784, 0.999738, 0.000000,	0.000000, 0.000000, 0.000000, 0.000000, 0.000000 
1469452267.986454000, 0.680544, -0.125719, 0.003776, -0.015552,	-0.002309, 0.022585, 0.999621, 0.000000,	0.000000, 0.000000, 0.000000, 0.000000, 0.000000 
1469452271.101611000, 0.683170, -0.121757, -0.000446, 0.002375,	-0.002410, 0.023465, 0.999719, 0.000000,	0.000000, 0.000000, 0.000000, 0.000000, 0.000000 
1469452274.152498000, 0.684595, -0.126921, 0.004050, -0.017177,	-0.002553, 0.023463, 0.999574, 0.000000,	0.000000, 0.000000, 0.000000, 0.000000, 0.000000 
1469452277.253236000, 0.684621, -0.123111, -0.000364, 0.001719,	-0.002179, 0.023022, 0.999731, 0.000000,	0.000000, 0.000000, 0.000000, 0.000000, 0.000000 
1469452280.316983000, 0.686962, -0.126325, 0.004252, -0.015870,	-0.002521, 0.023264, 0.999600, 0.000000,	0.000000, 0.000000, 0.000000, 0.000000, 0.000000 
1469452283.414834000, 0.686859, -0.121965, -0.000104, 0.001586,	-0.002065, 0.022705, 0.999739, 0.000000,	0.000000, 0.000000, 0.000000, 0.000000, 0.000000 
1469452286.464381000, 0.681399, -0.126505, 0.003957, -0.016267,	-0.002471, 0.022982, 0.999601, 0.000000,	0.000000, 0.000000, 0.000000, 0.000000, 0.000000 
1469452289.571298000, 0.680178, -0.121551, -0.000490, 0.001013,	-0.002254, 0.022730, 0.999739, 0.000000,	0.000000, 0.000000, 0.000000, 0.000000, 0.000000 
